module lenslocked.com

go 1.16

require (
	github.com/go-delve/delve v1.7.0 // indirect
	github.com/gorilla/mux v1.8.0 // indirect
	github.com/gorilla/schema v1.2.0 // indirect
	github.com/jinzhu/gorm v1.9.16 // indirect
	github.com/lib/pq v1.10.2 // indirect
	golang.org/x/crypto v0.0.0-20210711020723-a769d52b0f97 // indirect
)
